[
  {
    "id": "1",
    "name": "Иван Иванов / Ivan Ivanov",
    "telephone": "+375-44-0000001",
    "email": "ivanov@atlantm.com",
    "address": "ООО Автоцентр Атлант-М"
  },
  {
    "id": "2",
    "name": "Петр Петров/ Peter Petrov",
    "telephone": "+375-44-0000002",
    "email": "petrov@atlantm.com",
    "address": "ООО Автоцентр Атлант-М"
  },
  {
    "id": "3",
    "name": "Василий Васильев / Vasily Vasiliev",
    "telephone": "+375-44-0000003",
    "email": "vasiliev@atlantm.com",
    "address": "ООО Автоцентр Атлант-М"
  },
  {
    "id": 4,
    "name": "Александр Пушкин / Aleksandr Pushkin",
    "telephone": "+375-44-0000004",
    "email": "pushkin@atlantm.com ",
    "address": "ООО Автоцентр Атлант-М"
  },
  {
    "id": "5",
    "name": "Матвей Матвеев / Matvey Matveev",
    "telephone": "+375-44-0000005",
    "email": "matveev@atlantm.com",
    "address": "ООО Автоцентр Атлант-М"
  }
]
